{
  "project_info": {
    "project_number": "422836712301",
    "firebase_url": "https://attraction-native.firebaseio.com",
    "project_id": "attraction-native",
    "storage_bucket": "attraction-native.appspot.com"
  },
  "client": [
    {
      "client_info": {
        "mobilesdk_app_id": "1:422836712301:android:9be1bdc6635896ab",
        "android_client_info": {
          "package_name": "com.novina.mobile"
        }
      },
      "oauth_client": [
        {
          "client_id": "422836712301-bj8b5muq9ki55pcg6p5a5m41o8oo99l1.apps.googleusercontent.com",
          "client_type": 1,
          "android_info": {
            "package_name": "com.novina.mobile",
            "certificate_hash": "b5695f5ef3496c4fea53f09417858ae2d5b85ead"
          }
        },
        {
          "client_id": "422836712301-hpj8d3bda1rcu6h3f71d7cbr6bibobmt.apps.googleusercontent.com",
          "client_type": 3
        }
      ],
      "api_key": [
        {
          "current_key": "AIzaSyBsOjTpbQUWWLnhcpc4kNg6lpfPSoTPuns"
        }
      ],
      "services": {
        "analytics_service": {
          "status": 1
        },
        "appinvite_service": {
          "status": 2,
          "other_platform_oauth_client": [
            {
              "client_id": "422836712301-hpj8d3bda1rcu6h3f71d7cbr6bibobmt.apps.googleusercontent.com",
              "client_type": 3
            }
          ]
        },
        "ads_service": {
          "status": 2
        }
      }
    }
  ],
  "configuration_version": "1"
}